…
I analyzed which ingredients, as well as combination of ingredients, are most common in U.S. cocktail drinks.

Source

The cocktail ingredients data is originally from the Mr. Boston Bartender's Guide via Kaggle.

library(tidyverse)
library(janitor)

cocktails_raw <- read_csv("https://raw.githubusercontent.com/rfordatascience/tidytuesday/master/data/2020/2020-05-26/boston_cocktails.csv")

cocktails_raw

## # A tibble: 3,643 x 6
##    name        category         row_id ingredient_number ingredient      measure
##    <chr>       <chr>             <dbl>             <dbl> <chr>           <chr>  
##  1 Gauguin     Cocktail Classi…      1                 1 Light Rum       2 oz   
##  2 Gauguin     Cocktail Classi…      1                 2 Passion Fruit … 1 oz   
##  3 Gauguin     Cocktail Classi…      1                 3 Lemon Juice     1 oz   
##  4 Gauguin     Cocktail Classi…      1                 4 Lime Juice      1 oz   
##  5 Fort Laude… Cocktail Classi…      2                 1 Light Rum       1 1/2 …
##  6 Fort Laude… Cocktail Classi…      2                 2 Sweet Vermouth  1/2 oz 
##  7 Fort Laude… Cocktail Classi…      2                 3 Juice of Orange 1/4 oz 
##  8 Fort Laude… Cocktail Classi…      2                 4 Juice of a Lime 1/4 oz 
##  9 Apple Pie   Cordials and Li…      3                 1 Apple schnapps  3 oz   
## 10 Apple Pie   Cordials and Li…      3                 2 Cinnamon schna… 1 oz   
## # … with 3,633 more rows
…
Option 2 - ggupset package

The ggupset package by Constantin Ahlmann-Eltze is tidyverse-friendly so I immediately felt at home. Just a bit of transformation was needed into the tidy format - converting separate rows per ingredient into unique rows per cocktail.

library(ggupset)

cocktails_list <- cocktails %>%
  group_by(name) %>%
  filter(ingredient %in% ingredients_top) %>%
  summarize(ingredient = list(ingredient))

cocktails_list

## # A tibble: 733 x 2
##    name                       ingredient
##    <chr>                      <list>    
##  1 19th Century               <chr [1]> 
##  2 Absinthe Special Cocktail  <chr [1]> 
##  3 Acapulco                   <chr [3]> 
##  4 Adam and Eve               <chr [2]> 
##  5 Adderly Cocktail           <chr [1]> 
##  6 Admiral Perry              <chr [1]> 
##  7 Affinity Cocktail          <chr [1]> 
##  8 Affinity Cocktail (whisky) <chr [1]> 
##  9 After Dinner Cocktail      <chr [1]> 
## 10 After Supper Cocktail      <chr [1]> 
## # … with 723 more rows
…
