…
   register_google(key = Sys.getenv("GOOGLE_MAPS_API"))

   followers_geo <- followers %>%
      mutate_geocode (location, output = "more") %>%
      mutate (
         country = word (address, -1, -1, sep = ","),
         country = str_to_upper (country),
         country = str_trim(country),
         country = ifelse(is.na(country), "NOT LISTED", country)
         ) %>%
      select (rank:followers_count, country, address, lon, lat) 
   
   followers_geo

## # A tibble: 500 x 9
##     rank screen_name name  location followers_count country address      lon
##    <int> <chr>       <chr> <chr>              <int> <chr>   <chr>      <dbl>
##  1     1 spencechec… Spen… "Salt L…           30252 USA     salt l… -112.   
##  2     2 shawkiii14  شوقي  ""                 16916 NOT LI… <NA>      NA    
##  3     3 James_Fiel… Jame… "London"            9752 UK      london…   -0.128
##  4     4 MalomaPale… 11.0… "Pretor…            3386 SOUTH … pretor…   28.2  
##  5     5 feyyyaz     feyy… "Sanliu…            2801 TURKEY  şanlıu…   38.8  
##  6     6 biyanrizal… Biya… "Indone…            2800 INDONE… indone…  114.   
##  7     7 ashwinappi… Ashw… "Seattl…            2592 USA     seattl… -122.   
##  8     8 TheGreekMa… TheG… "Toront…            2358 CANADA  toront…  -79.4  
##  9     9 folamisegun Like… "Nigeri…            2009 NIGERIA nigeria    8.68 
## 10    10 DeejayIrak… Dj I… "Kampal…            1951 UGANDA  kampal…   32.6  
## # … with 490 more rows, and 1 more variable: lat <dbl>
…
