Digging into BVB Dortmund Football Club's Tweets
…
   register_google(key = Sys.getenv("GOOGLE_MAPS_API"))

   followers_geo <- followers %>%
      mutate_geocode (location, output = "more") %>%
      mutate (
         country = word (address, -1,-1),
         country = str_to_upper(country),
         country = ifelse(is.na(country), "NOT LISTED", country)
         ) %>%
      select (rank:followers_count, country, lon, lat) 
   
   followers_geo

## # A tibble: 500 x 8
##     rank screen_name  name      location   followers_count country    lon    lat
##    <int> <chr>        <chr>     <chr>                <int> <chr>    <dbl>  <dbl>
##  1     1 washamzulu   "IG:@was… "Soshangu…            1802 AFRICA   28.1  -25.5 
##  2     2 pedrogull    "Pedro G… ""                    1649 NOT LI…  NA     NA   
##  3     3 iwowari      "Àýìbäńè… "Yenagoa,…            1518 NIGERIA   6.27   4.92
##  4     4 tyler_drille "observa… ""                    1297 NOT LI…  NA     NA   
##  5     5 Mostafa7621… "Mostafa… "Assiut,E…            1210 EGYPT    31.2   27.2 
##  6     6 Thabo_kganza "Thabo"   "Polokwan…             942 AFRICA   29.4  -23.9 
##  7     7 mhlengigase… "🇿🇦Nyand… "Mapleton…             940 AFRICA   28.2  -26.3 
##  8     8 th_nd_r      "Thunder… "Sand Spr…             857 USA     -96.1   36.1 
##  9     9 IamBig_Mitc… "lepants… "Pretoria…             804 AFRICA   28.2  -25.7 
## 10    10 BuhleMogale  "Buhle S… "South Af…             786 AFRICA   22.9  -30.6 
## # … with 490 more rows
…
